{
   "code":0,
   "message":"OK",
   "data":{
      "id":1,
      "type":"articles",
      "title":"今日特辑",
      "contents":[
         {
            "id":218,
            "title":"香料与食材碰撞，擦出惊艳的味蕾火花",
            "cover_url":"https://static.ak2.co/posts/4AKfaYiS3n.jpg",
            "favourited":False
         },
         {
            "id":217,
            "title":"那一锅慢慢炖出来的鲜软酥香",
            "cover_url":"https://static.ak2.co/posts/8hayfYBaMX.jpg",
            "favourited":False
         },
         {
            "id":216,
            "title":"百吃不腻的下饭菜，当属红烧",
            "cover_url":"https://ak-artisan-production.oss-cn-hangzhou.aliyuncs.com/posts/zRiBDcpZPb.jpg",
            "favourited":False
         },
         {
            "id":215,
            "title":"今年的圣诞大餐，自己在家做",
            "cover_url":"https://ak-artisan-production.oss-cn-hangzhou.aliyuncs.com/posts/zwkZ4pH7W8.jpg",
            "favourited":False
         },
         {
            "id":96,
            "title":"可不可以让我天天吃猪肉",
            "cover_url":"https://ak-artisan-production.oss-cn-hangzhou.aliyuncs.com/posts/fbHw62jCQh.jpg",
            "favourited":False
         },
         {
            "id":214,
            "title":"12月22日 • 冬至吃什么？",
            "cover_url":"https://ak-artisan-production.oss-cn-hangzhou.aliyuncs.com/posts/i2fWfQybEW.jpg",
            "favourited":False
         },
         {
            "id":213,
            "title":"本周最受欢迎智能食谱 TOP10",
            "cover_url":"https://ak-artisan-production.oss-cn-hangzhou.aliyuncs.com/posts/hDCzd5papc.jpg",
            "favourited":False
         },
         {
            "id":212,
            "title":"不煎不炸，我们今天吃蒸菜",
            "cover_url":"https://ak-artisan-production.oss-cn-hangzhou.aliyuncs.com/posts/Xs3ctNhbCE.jpg",
            "favourited":False
         },
         {
            "id":104,
            "title":"简单炒个菜，立刻吃晚饭",
            "cover_url":"https://ak-artisan-production.oss-cn-hangzhou.aliyuncs.com/posts/G5WrS44s3A.jpg",
            "favourited":False
         },
         {
            "id":210,
            "title":"被窝太暖，必须十分钟搞定早餐",
            "cover_url":"https://ak-artisan-production.oss-cn-hangzhou.aliyuncs.com/posts/sxfBHKKspQ.jpg",
            "favourited":False
         }
      ],
      "more":True,
      "total":272,
      "current_page":23,
      "last_page":28
   }
}